%TF.GenerationSoftware,KiCad,Pcbnew,6.0.11+dfsg-1*%
%TF.CreationDate,2023-03-30T15:23:39+02:00*%
%TF.ProjectId,dfs,6466732e-6b69-4636-9164-5f7063625858,rev?*%
%TF.SameCoordinates,Original*%
%TF.FileFunction,Drillmap*%
%TF.FilePolarity,Positive*%
%FSLAX45Y45*%
G04 Gerber Fmt 4.5, Leading zero omitted, Abs format (unit mm)*
G04 Created by KiCad (PCBNEW 6.0.11+dfsg-1) date 2023-03-30 15:23:39*
%MOMM*%
%LPD*%
G01*
G04 APERTURE LIST*
%ADD10C,0.100000*%
%ADD11C,0.200000*%
G04 APERTURE END LIST*
D10*
X15875000Y-11430000D02*
X15875000Y-6985000D01*
X21590000Y-11430000D02*
X15875000Y-11430000D01*
X21590000Y-6985000D02*
X21590000Y-11430000D01*
X15875000Y-6985000D02*
X21590000Y-6985000D01*
D11*
X16127619Y-11745476D02*
X16127619Y-11545476D01*
X16175238Y-11545476D01*
X16203809Y-11555000D01*
X16222857Y-11574048D01*
X16232381Y-11593095D01*
X16241905Y-11631190D01*
X16241905Y-11659762D01*
X16232381Y-11697857D01*
X16222857Y-11716905D01*
X16203809Y-11735952D01*
X16175238Y-11745476D01*
X16127619Y-11745476D01*
X16327619Y-11745476D02*
X16327619Y-11612143D01*
X16327619Y-11650238D02*
X16337143Y-11631190D01*
X16346667Y-11621667D01*
X16365714Y-11612143D01*
X16384762Y-11612143D01*
X16451428Y-11745476D02*
X16451428Y-11612143D01*
X16451428Y-11545476D02*
X16441905Y-11555000D01*
X16451428Y-11564524D01*
X16460952Y-11555000D01*
X16451428Y-11545476D01*
X16451428Y-11564524D01*
X16575238Y-11745476D02*
X16556190Y-11735952D01*
X16546667Y-11716905D01*
X16546667Y-11545476D01*
X16680000Y-11745476D02*
X16660952Y-11735952D01*
X16651428Y-11716905D01*
X16651428Y-11545476D01*
X16908571Y-11745476D02*
X16908571Y-11545476D01*
X16975238Y-11688333D01*
X17041905Y-11545476D01*
X17041905Y-11745476D01*
X17222857Y-11745476D02*
X17222857Y-11640714D01*
X17213333Y-11621667D01*
X17194286Y-11612143D01*
X17156190Y-11612143D01*
X17137143Y-11621667D01*
X17222857Y-11735952D02*
X17203810Y-11745476D01*
X17156190Y-11745476D01*
X17137143Y-11735952D01*
X17127619Y-11716905D01*
X17127619Y-11697857D01*
X17137143Y-11678809D01*
X17156190Y-11669286D01*
X17203810Y-11669286D01*
X17222857Y-11659762D01*
X17318095Y-11612143D02*
X17318095Y-11812143D01*
X17318095Y-11621667D02*
X17337143Y-11612143D01*
X17375238Y-11612143D01*
X17394286Y-11621667D01*
X17403810Y-11631190D01*
X17413333Y-11650238D01*
X17413333Y-11707381D01*
X17403810Y-11726428D01*
X17394286Y-11735952D01*
X17375238Y-11745476D01*
X17337143Y-11745476D01*
X17318095Y-11735952D01*
X17499048Y-11726428D02*
X17508571Y-11735952D01*
X17499048Y-11745476D01*
X17489524Y-11735952D01*
X17499048Y-11726428D01*
X17499048Y-11745476D01*
X17499048Y-11621667D02*
X17508571Y-11631190D01*
X17499048Y-11640714D01*
X17489524Y-11631190D01*
X17499048Y-11621667D01*
X17499048Y-11640714D01*
M02*
